   1               		.file	"flash.c"
   2               	__SP_H__ = 0x3e
   3               	__SP_L__ = 0x3d
   4               	__SREG__ = 0x3f
   5               	__CCP__ = 0x34
   6               	__tmp_reg__ = 0
   7               	__zero_reg__ = 1
   9               		.text
  10               	.Ltext0:
 530               		.section	.text.Flash_ProgramPage,"ax",@progbits
 535               	.global	Flash_ProgramPage
 537               	Flash_ProgramPage:
   1:flash.c       **** /************************************************************************/
   2:flash.c       **** /* Generic ATMEL Flash Driver                                           */
   3:flash.c       **** /*                                                                      */
   4:flash.c       **** /* flash.c                                                              */
   5:flash.c       **** /*                                                                      */
   6:flash.c       **** /* Alex Forencich <alex@alexforencich.com>                              */
   7:flash.c       **** /*                                                                      */
   8:flash.c       **** /* Copyright (c) 2011 Alex Forencich                                    */
   9:flash.c       **** /*                                                                      */
  10:flash.c       **** /* Permission is hereby granted, free of charge, to any person          */
  11:flash.c       **** /* obtaining a copy of this software and associated documentation       */
  12:flash.c       **** /* files(the "Software"), to deal in the Software without restriction,  */
  13:flash.c       **** /* including without limitation the rights to use, copy, modify, merge, */
  14:flash.c       **** /* publish, distribute, sublicense, and/or sell copies of the Software, */
  15:flash.c       **** /* and to permit persons to whom the Software is furnished to do so,    */
  16:flash.c       **** /* subject to the following conditions:                                 */
  17:flash.c       **** /*                                                                      */
  18:flash.c       **** /* The above copyright notice and this permission notice shall be       */
  19:flash.c       **** /* included in all copies or substantial portions of the Software.      */
  20:flash.c       **** /*                                                                      */
  21:flash.c       **** /* THE SOFTWARE IS PROVIDED "AS IS", WITHOUT WARRANTY OF ANY KIND,      */
  22:flash.c       **** /* EXPRESS OR IMPLIED, INCLUDING BUT NOT LIMITED TO THE WARRANTIES OF   */
  23:flash.c       **** /* MERCHANTABILITY, FITNESS FOR A PARTICULAR PURPOSE AND                */
  24:flash.c       **** /* NONINFRINGEMENT. IN NO EVENT SHALL THE AUTHORS OR COPYRIGHT HOLDERS  */
  25:flash.c       **** /* BE LIABLE FOR ANY CLAIM, DAMAGES OR OTHER LIABILITY, WHETHER IN AN   */
  26:flash.c       **** /* ACTION OF CONTRACT, TORT OR OTHERWISE, ARISING FROM, OUT OF OR IN    */
  27:flash.c       **** /* CONNECTION WITH THE SOFTWARE OR THE USE OR OTHER DEALINGS IN THE     */
  28:flash.c       **** /* SOFTWARE.                                                            */
  29:flash.c       **** /*                                                                      */
  30:flash.c       **** /************************************************************************/
  31:flash.c       **** 
  32:flash.c       **** #include "flash.h"
  33:flash.c       **** 
  34:flash.c       **** #ifdef __AVR_XMEGA__
  35:flash.c       **** 
  36:flash.c       **** // XMega functions
  37:flash.c       **** // (sp_driver wrapper)
  38:flash.c       **** 
  39:flash.c       **** void Flash_ProgramPage(uint32_t page, uint8_t *buf, uint8_t erase)
  40:flash.c       **** {
 539               	.LM0:
 540               	.LFBB1:
 541 0000 CF92      		push r12
 542 0002 DF92      		push r13
 543 0004 EF92      		push r14
 544 0006 FF92      		push r15
 545 0008 CF93      		push r28
 546 000a DF93      		push r29
 547 000c 1F92      		push __zero_reg__
 548 000e CDB7      		in r28,__SP_L__
 549 0010 DEB7      		in r29,__SP_H__
 550               	/* prologue: function */
 551               	/* frame size = 1 */
 552               	/* stack size = 7 */
 553               	.L__stack_usage = 7
 554 0012 6B01      		movw r12,r22
 555 0014 7C01      		movw r14,r24
 556 0016 CA01      		movw r24,r20
  41:flash.c       ****         Flash_LoadFlashPage(buf);
 558               	.LM1:
 559 0018 2983      		std Y+1,r18
 560 001a 0E94 0000 		call SP_LoadFlashPage
  42:flash.c       ****         
  43:flash.c       ****         if (erase)
 562               	.LM2:
 563 001e 2981      		ldd r18,Y+1
  44:flash.c       ****         {
  45:flash.c       ****                 Flash_EraseWriteApplicationPage(page);
 565               	.LM3:
 566 0020 C701      		movw r24,r14
 567 0022 B601      		movw r22,r12
  43:flash.c       ****         {
 569               	.LM4:
 570 0024 2223      		tst r18
 571 0026 01F0      		breq .L2
 573               	.LM5:
 574 0028 0E94 0000 		call SP_EraseWriteApplicationPage
 575 002c 00C0      		rjmp .L3
 576               	.L2:
  46:flash.c       ****         }
  47:flash.c       ****         else
  48:flash.c       ****         {
  49:flash.c       ****                 Flash_WriteApplicationPage(page);
 578               	.LM6:
 579 002e 0E94 0000 		call SP_WriteApplicationPage
 580               	.L3:
 581               	/* epilogue start */
  50:flash.c       ****         }
  51:flash.c       ****         
  52:flash.c       ****         Flash_WaitForSPM();
  53:flash.c       **** }
 583               	.LM7:
 584 0032 0F90      		pop __tmp_reg__
 585 0034 DF91      		pop r29
 586 0036 CF91      		pop r28
 587 0038 FF90      		pop r15
 588 003a EF90      		pop r14
 589 003c DF90      		pop r13
 590 003e CF90      		pop r12
  52:flash.c       **** }
 592               	.LM8:
 593 0040 0C94 0000 		jmp SP_WaitForSPM
 595               	.Lscope1:
 596               		.text
 598               	.Letext0:
 599               		.ident	"GCC: (GNU) 4.8.1"
DEFINED SYMBOLS
                            *ABS*:0000000000000000 flash.c
     /tmp/ccxEAX3Y.s:2      *ABS*:000000000000003e __SP_H__
     /tmp/ccxEAX3Y.s:3      *ABS*:000000000000003d __SP_L__
     /tmp/ccxEAX3Y.s:4      *ABS*:000000000000003f __SREG__
     /tmp/ccxEAX3Y.s:5      *ABS*:0000000000000034 __CCP__
     /tmp/ccxEAX3Y.s:6      *ABS*:0000000000000000 __tmp_reg__
     /tmp/ccxEAX3Y.s:7      *ABS*:0000000000000001 __zero_reg__
     /tmp/ccxEAX3Y.s:537    .text.Flash_ProgramPage:0000000000000000 Flash_ProgramPage

UNDEFINED SYMBOLS
SP_LoadFlashPage
SP_EraseWriteApplicationPage
SP_WriteApplicationPage
SP_WaitForSPM
