('G:\\My '
 'Drive\\_MIKA_WORK\\Spinner\\Software\\llf_spinner\\IRT_App\\Qt\\IRT\\build\\IRT\\PYZ-00.pyz',
 [('copy',
   'c:\\users\\michael liesenberg\\anaconda3\\lib\\copy.py',
   'PYMODULE'),
  ('tracemalloc',
   'c:\\users\\michael liesenberg\\anaconda3\\lib\\tracemalloc.py',
   'PYMODULE'),
  ('pickle',
   'c:\\users\\michael liesenberg\\anaconda3\\lib\\pickle.py',
   'PYMODULE'),
  ('pprint',
   'c:\\users\\michael liesenberg\\anaconda3\\lib\\pprint.py',
   'PYMODULE'),
  ('argparse',
   'c:\\users\\michael liesenberg\\anaconda3\\lib\\argparse.py',
   'PYMODULE'),
  ('textwrap',
   'c:\\users\\michael liesenberg\\anaconda3\\lib\\textwrap.py',
   'PYMODULE'),
  ('gettext',
   'c:\\users\\michael liesenberg\\anaconda3\\lib\\gettext.py',
   'PYMODULE'),
  ('doctest',
   'c:\\users\\michael liesenberg\\anaconda3\\lib\\doctest.py',
   'PYMODULE'),
  ('unittest',
   'c:\\users\\michael liesenberg\\anaconda3\\lib\\unittest\\__init__.py',
   'PYMODULE'),
  ('unittest.signals',
   'c:\\users\\michael liesenberg\\anaconda3\\lib\\unittest\\signals.py',
   'PYMODULE'),
  ('signal',
   'c:\\users\\michael liesenberg\\anaconda3\\lib\\signal.py',
   'PYMODULE'),
  ('unittest.main',
   'c:\\users\\michael liesenberg\\anaconda3\\lib\\unittest\\main.py',
   'PYMODULE'),
  ('unittest.runner',
   'c:\\users\\michael liesenberg\\anaconda3\\lib\\unittest\\runner.py',
   'PYMODULE'),
  ('unittest.loader',
   'c:\\users\\michael liesenberg\\anaconda3\\lib\\unittest\\loader.py',
   'PYMODULE'),
  ('unittest.suite',
   'c:\\users\\michael liesenberg\\anaconda3\\lib\\unittest\\suite.py',
   'PYMODULE'),
  ('unittest.case',
   'c:\\users\\michael liesenberg\\anaconda3\\lib\\unittest\\case.py',
   'PYMODULE'),
  ('contextlib',
   'c:\\users\\michael liesenberg\\anaconda3\\lib\\contextlib.py',
   'PYMODULE'),
  ('logging',
   'c:\\users\\michael liesenberg\\anaconda3\\lib\\logging\\__init__.py',
   'PYMODULE'),
  ('threading',
   'c:\\users\\michael liesenberg\\anaconda3\\lib\\threading.py',
   'PYMODULE'),
  ('_threading_local',
   'c:\\users\\michael liesenberg\\anaconda3\\lib\\_threading_local.py',
   'PYMODULE'),
  ('string',
   'c:\\users\\michael liesenberg\\anaconda3\\lib\\string.py',
   'PYMODULE'),
  ('unittest.result',
   'c:\\users\\michael liesenberg\\anaconda3\\lib\\unittest\\result.py',
   'PYMODULE'),
  ('unittest.util',
   'c:\\users\\michael liesenberg\\anaconda3\\lib\\unittest\\util.py',
   'PYMODULE'),
  ('pdb', 'c:\\users\\michael liesenberg\\anaconda3\\lib\\pdb.py', 'PYMODULE'),
  ('getopt',
   'c:\\users\\michael liesenberg\\anaconda3\\lib\\getopt.py',
   'PYMODULE'),
  ('pydoc',
   'c:\\users\\michael liesenberg\\anaconda3\\lib\\pydoc.py',
   'PYMODULE'),
  ('webbrowser',
   'c:\\users\\michael liesenberg\\anaconda3\\lib\\webbrowser.py',
   'PYMODULE'),
  ('socket',
   'c:\\users\\michael liesenberg\\anaconda3\\lib\\socket.py',
   'PYMODULE'),
  ('selectors',
   'c:\\users\\michael liesenberg\\anaconda3\\lib\\selectors.py',
   'PYMODULE'),
  ('shutil',
   'c:\\users\\michael liesenberg\\anaconda3\\lib\\shutil.py',
   'PYMODULE'),
  ('zipfile',
   'c:\\users\\michael liesenberg\\anaconda3\\lib\\zipfile.py',
   'PYMODULE'),
  ('py_compile',
   'c:\\users\\michael liesenberg\\anaconda3\\lib\\py_compile.py',
   'PYMODULE'),
  ('tarfile',
   'c:\\users\\michael liesenberg\\anaconda3\\lib\\tarfile.py',
   'PYMODULE'),
  ('gzip',
   'c:\\users\\michael liesenberg\\anaconda3\\lib\\gzip.py',
   'PYMODULE'),
  ('_compression',
   'c:\\users\\michael liesenberg\\anaconda3\\lib\\_compression.py',
   'PYMODULE'),
  ('lzma',
   'c:\\users\\michael liesenberg\\anaconda3\\lib\\lzma.py',
   'PYMODULE'),
  ('bz2', 'c:\\users\\michael liesenberg\\anaconda3\\lib\\bz2.py', 'PYMODULE'),
  ('stat',
   'c:\\users\\michael liesenberg\\anaconda3\\lib\\stat.py',
   'PYMODULE'),
  ('email.message',
   'c:\\users\\michael liesenberg\\anaconda3\\lib\\email\\message.py',
   'PYMODULE'),
  ('email.policy',
   'c:\\users\\michael liesenberg\\anaconda3\\lib\\email\\policy.py',
   'PYMODULE'),
  ('email.contentmanager',
   'c:\\users\\michael liesenberg\\anaconda3\\lib\\email\\contentmanager.py',
   'PYMODULE'),
  ('email.quoprimime',
   'c:\\users\\michael liesenberg\\anaconda3\\lib\\email\\quoprimime.py',
   'PYMODULE'),
  ('email.headerregistry',
   'c:\\users\\michael liesenberg\\anaconda3\\lib\\email\\headerregistry.py',
   'PYMODULE'),
  ('email._header_value_parser',
   'c:\\users\\michael '
   'liesenberg\\anaconda3\\lib\\email\\_header_value_parser.py',
   'PYMODULE'),
  ('urllib',
   'c:\\users\\michael liesenberg\\anaconda3\\lib\\urllib\\__init__.py',
   'PYMODULE'),
  ('email.iterators',
   'c:\\users\\michael liesenberg\\anaconda3\\lib\\email\\iterators.py',
   'PYMODULE'),
  ('email.generator',
   'c:\\users\\michael liesenberg\\anaconda3\\lib\\email\\generator.py',
   'PYMODULE'),
  ('random',
   'c:\\users\\michael liesenberg\\anaconda3\\lib\\random.py',
   'PYMODULE'),
  ('bisect',
   'c:\\users\\michael liesenberg\\anaconda3\\lib\\bisect.py',
   'PYMODULE'),
  ('hashlib',
   'c:\\users\\michael liesenberg\\anaconda3\\lib\\hashlib.py',
   'PYMODULE'),
  ('email._encoded_words',
   'c:\\users\\michael liesenberg\\anaconda3\\lib\\email\\_encoded_words.py',
   'PYMODULE'),
  ('base64',
   'c:\\users\\michael liesenberg\\anaconda3\\lib\\base64.py',
   'PYMODULE'),
  ('email.charset',
   'c:\\users\\michael liesenberg\\anaconda3\\lib\\email\\charset.py',
   'PYMODULE'),
  ('email.encoders',
   'c:\\users\\michael liesenberg\\anaconda3\\lib\\email\\encoders.py',
   'PYMODULE'),
  ('email.base64mime',
   'c:\\users\\michael liesenberg\\anaconda3\\lib\\email\\base64mime.py',
   'PYMODULE'),
  ('email._policybase',
   'c:\\users\\michael liesenberg\\anaconda3\\lib\\email\\_policybase.py',
   'PYMODULE'),
  ('email.header',
   'c:\\users\\michael liesenberg\\anaconda3\\lib\\email\\header.py',
   'PYMODULE'),
  ('email.errors',
   'c:\\users\\michael liesenberg\\anaconda3\\lib\\email\\errors.py',
   'PYMODULE'),
  ('email.utils',
   'c:\\users\\michael liesenberg\\anaconda3\\lib\\email\\utils.py',
   'PYMODULE'),
  ('email._parseaddr',
   'c:\\users\\michael liesenberg\\anaconda3\\lib\\email\\_parseaddr.py',
   'PYMODULE'),
  ('calendar',
   'c:\\users\\michael liesenberg\\anaconda3\\lib\\calendar.py',
   'PYMODULE'),
  ('datetime',
   'c:\\users\\michael liesenberg\\anaconda3\\lib\\datetime.py',
   'PYMODULE'),
  ('_strptime',
   'c:\\users\\michael liesenberg\\anaconda3\\lib\\_strptime.py',
   'PYMODULE'),
  ('email',
   'c:\\users\\michael liesenberg\\anaconda3\\lib\\email\\__init__.py',
   'PYMODULE'),
  ('email.parser',
   'c:\\users\\michael liesenberg\\anaconda3\\lib\\email\\parser.py',
   'PYMODULE'),
  ('email.feedparser',
   'c:\\users\\michael liesenberg\\anaconda3\\lib\\email\\feedparser.py',
   'PYMODULE'),
  ('quopri',
   'c:\\users\\michael liesenberg\\anaconda3\\lib\\quopri.py',
   'PYMODULE'),
  ('uu', 'c:\\users\\michael liesenberg\\anaconda3\\lib\\uu.py', 'PYMODULE'),
  ('optparse',
   'c:\\users\\michael liesenberg\\anaconda3\\lib\\optparse.py',
   'PYMODULE'),
  ('http.server',
   'c:\\users\\michael liesenberg\\anaconda3\\lib\\http\\server.py',
   'PYMODULE'),
  ('http',
   'c:\\users\\michael liesenberg\\anaconda3\\lib\\http\\__init__.py',
   'PYMODULE'),
  ('socketserver',
   'c:\\users\\michael liesenberg\\anaconda3\\lib\\socketserver.py',
   'PYMODULE'),
  ('posixpath',
   'c:\\users\\michael liesenberg\\anaconda3\\lib\\posixpath.py',
   'PYMODULE'),
  ('genericpath',
   'c:\\users\\michael liesenberg\\anaconda3\\lib\\genericpath.py',
   'PYMODULE'),
  ('mimetypes',
   'c:\\users\\michael liesenberg\\anaconda3\\lib\\mimetypes.py',
   'PYMODULE'),
  ('http.client',
   'c:\\users\\michael liesenberg\\anaconda3\\lib\\http\\client.py',
   'PYMODULE'),
  ('ssl', 'c:\\users\\michael liesenberg\\anaconda3\\lib\\ssl.py', 'PYMODULE'),
  ('html',
   'c:\\users\\michael liesenberg\\anaconda3\\lib\\html\\__init__.py',
   'PYMODULE'),
  ('html.entities',
   'c:\\users\\michael liesenberg\\anaconda3\\lib\\html\\entities.py',
   'PYMODULE'),
  ('pydoc_data.topics',
   'c:\\users\\michael liesenberg\\anaconda3\\lib\\pydoc_data\\topics.py',
   'PYMODULE'),
  ('pydoc_data',
   'c:\\users\\michael liesenberg\\anaconda3\\lib\\pydoc_data\\__init__.py',
   'PYMODULE'),
  ('tty', 'c:\\users\\michael liesenberg\\anaconda3\\lib\\tty.py', 'PYMODULE'),
  ('subprocess',
   'c:\\users\\michael liesenberg\\anaconda3\\lib\\subprocess.py',
   'PYMODULE'),
  ('tempfile',
   'c:\\users\\michael liesenberg\\anaconda3\\lib\\tempfile.py',
   'PYMODULE'),
  ('urllib.parse',
   'c:\\users\\michael liesenberg\\anaconda3\\lib\\urllib\\parse.py',
   'PYMODULE'),
  ('tokenize',
   'c:\\users\\michael liesenberg\\anaconda3\\lib\\tokenize.py',
   'PYMODULE'),
  ('token',
   'c:\\users\\michael liesenberg\\anaconda3\\lib\\token.py',
   'PYMODULE'),
  ('pkgutil',
   'c:\\users\\michael liesenberg\\anaconda3\\lib\\pkgutil.py',
   'PYMODULE'),
  ('importlib',
   'c:\\users\\michael liesenberg\\anaconda3\\lib\\importlib\\__init__.py',
   'PYMODULE'),
  ('importlib.abc',
   'c:\\users\\michael liesenberg\\anaconda3\\lib\\importlib\\abc.py',
   'PYMODULE'),
  ('importlib.util',
   'c:\\users\\michael liesenberg\\anaconda3\\lib\\importlib\\util.py',
   'PYMODULE'),
  ('importlib.machinery',
   'c:\\users\\michael liesenberg\\anaconda3\\lib\\importlib\\machinery.py',
   'PYMODULE'),
  ('importlib._bootstrap_external',
   'c:\\users\\michael '
   'liesenberg\\anaconda3\\lib\\importlib\\_bootstrap_external.py',
   'PYMODULE'),
  ('importlib._bootstrap',
   'c:\\users\\michael liesenberg\\anaconda3\\lib\\importlib\\_bootstrap.py',
   'PYMODULE'),
  ('runpy',
   'c:\\users\\michael liesenberg\\anaconda3\\lib\\runpy.py',
   'PYMODULE'),
  ('shlex',
   'c:\\users\\michael liesenberg\\anaconda3\\lib\\shlex.py',
   'PYMODULE'),
  ('readline',
   'c:\\users\\michael liesenberg\\anaconda3\\lib\\site-packages\\readline.py',
   'PYMODULE'),
  ('pyreadline.console',
   'c:\\users\\michael '
   'liesenberg\\anaconda3\\lib\\site-packages\\pyreadline\\console\\__init__.py',
   'PYMODULE'),
  ('pyreadline.console.console',
   'c:\\users\\michael '
   'liesenberg\\anaconda3\\lib\\site-packages\\pyreadline\\console\\console.py',
   'PYMODULE'),
  ('pyreadline.console.event',
   'c:\\users\\michael '
   'liesenberg\\anaconda3\\lib\\site-packages\\pyreadline\\console\\event.py',
   'PYMODULE'),
  ('ctypes.wintypes',
   'c:\\users\\michael liesenberg\\anaconda3\\lib\\ctypes\\wintypes.py',
   'PYMODULE'),
  ('ctypes.util',
   'c:\\users\\michael liesenberg\\anaconda3\\lib\\ctypes\\util.py',
   'PYMODULE'),
  ('ctypes._aix',
   'c:\\users\\michael liesenberg\\anaconda3\\lib\\ctypes\\_aix.py',
   'PYMODULE'),
  ('ctypes.macholib.dyld',
   'c:\\users\\michael liesenberg\\anaconda3\\lib\\ctypes\\macholib\\dyld.py',
   'PYMODULE'),
  ('ctypes.macholib',
   'c:\\users\\michael '
   'liesenberg\\anaconda3\\lib\\ctypes\\macholib\\__init__.py',
   'PYMODULE'),
  ('ctypes.macholib.dylib',
   'c:\\users\\michael liesenberg\\anaconda3\\lib\\ctypes\\macholib\\dylib.py',
   'PYMODULE'),
  ('ctypes.macholib.framework',
   'c:\\users\\michael '
   'liesenberg\\anaconda3\\lib\\ctypes\\macholib\\framework.py',
   'PYMODULE'),
  ('pyreadline.console.ansi',
   'c:\\users\\michael '
   'liesenberg\\anaconda3\\lib\\site-packages\\pyreadline\\console\\ansi.py',
   'PYMODULE'),
  ('pyreadline.keysyms',
   'c:\\users\\michael '
   'liesenberg\\anaconda3\\lib\\site-packages\\pyreadline\\keysyms\\__init__.py',
   'PYMODULE'),
  ('pyreadline.keysyms.keysyms',
   'c:\\users\\michael '
   'liesenberg\\anaconda3\\lib\\site-packages\\pyreadline\\keysyms\\keysyms.py',
   'PYMODULE'),
  ('pyreadline.keysyms.common',
   'c:\\users\\michael '
   'liesenberg\\anaconda3\\lib\\site-packages\\pyreadline\\keysyms\\common.py',
   'PYMODULE'),
  ('pyreadline.keysyms.ironpython_keysyms',
   'c:\\users\\michael '
   'liesenberg\\anaconda3\\lib\\site-packages\\pyreadline\\keysyms\\ironpython_keysyms.py',
   'PYMODULE'),
  ('pyreadline.keysyms.winconstants',
   'c:\\users\\michael '
   'liesenberg\\anaconda3\\lib\\site-packages\\pyreadline\\keysyms\\winconstants.py',
   'PYMODULE'),
  ('pyreadline.logger',
   'c:\\users\\michael '
   'liesenberg\\anaconda3\\lib\\site-packages\\pyreadline\\logger.py',
   'PYMODULE'),
  ('logging.handlers',
   'c:\\users\\michael liesenberg\\anaconda3\\lib\\logging\\handlers.py',
   'PYMODULE'),
  ('win32evtlogutil',
   'c:\\users\\michael '
   'liesenberg\\anaconda3\\lib\\site-packages\\win32\\lib\\win32evtlogutil.py',
   'PYMODULE'),
  ('winerror',
   'c:\\users\\michael '
   'liesenberg\\anaconda3\\lib\\site-packages\\win32\\lib\\winerror.py',
   'PYMODULE'),
  ('win32con',
   'c:\\users\\michael '
   'liesenberg\\anaconda3\\lib\\site-packages\\win32\\lib\\win32con.py',
   'PYMODULE'),
  ('smtplib',
   'c:\\users\\michael liesenberg\\anaconda3\\lib\\smtplib.py',
   'PYMODULE'),
  ('hmac',
   'c:\\users\\michael liesenberg\\anaconda3\\lib\\hmac.py',
   'PYMODULE'),
  ('queue',
   'c:\\users\\michael liesenberg\\anaconda3\\lib\\queue.py',
   'PYMODULE'),
  ('pyreadline.unicode_helper',
   'c:\\users\\michael '
   'liesenberg\\anaconda3\\lib\\site-packages\\pyreadline\\unicode_helper.py',
   'PYMODULE'),
  ('pyreadline.py3k_compat',
   'c:\\users\\michael '
   'liesenberg\\anaconda3\\lib\\site-packages\\pyreadline\\py3k_compat.py',
   'PYMODULE'),
  ('pyreadline.console.ironpython_console',
   'c:\\users\\michael '
   'liesenberg\\anaconda3\\lib\\site-packages\\pyreadline\\console\\ironpython_console.py',
   'PYMODULE'),
  ('pyreadline',
   'c:\\users\\michael '
   'liesenberg\\anaconda3\\lib\\site-packages\\pyreadline\\__init__.py',
   'PYMODULE'),
  ('pyreadline.release',
   'c:\\users\\michael '
   'liesenberg\\anaconda3\\lib\\site-packages\\pyreadline\\release.py',
   'PYMODULE'),
  ('pyreadline.modes',
   'c:\\users\\michael '
   'liesenberg\\anaconda3\\lib\\site-packages\\pyreadline\\modes\\__init__.py',
   'PYMODULE'),
  ('pyreadline.modes.vi',
   'c:\\users\\michael '
   'liesenberg\\anaconda3\\lib\\site-packages\\pyreadline\\modes\\vi.py',
   'PYMODULE'),
  ('pyreadline.lineeditor.history',
   'c:\\users\\michael '
   'liesenberg\\anaconda3\\lib\\site-packages\\pyreadline\\lineeditor\\history.py',
   'PYMODULE'),
  ('pyreadline.lineeditor.lineobj',
   'c:\\users\\michael '
   'liesenberg\\anaconda3\\lib\\site-packages\\pyreadline\\lineeditor\\lineobj.py',
   'PYMODULE'),
  ('pyreadline.lineeditor.wordmatcher',
   'c:\\users\\michael '
   'liesenberg\\anaconda3\\lib\\site-packages\\pyreadline\\lineeditor\\wordmatcher.py',
   'PYMODULE'),
  ('pyreadline.modes.notemacs',
   'c:\\users\\michael '
   'liesenberg\\anaconda3\\lib\\site-packages\\pyreadline\\modes\\notemacs.py',
   'PYMODULE'),
  ('pyreadline.modes.emacs',
   'c:\\users\\michael '
   'liesenberg\\anaconda3\\lib\\site-packages\\pyreadline\\modes\\emacs.py',
   'PYMODULE'),
  ('pyreadline.modes.basemode',
   'c:\\users\\michael '
   'liesenberg\\anaconda3\\lib\\site-packages\\pyreadline\\modes\\basemode.py',
   'PYMODULE'),
  ('pyreadline.error',
   'c:\\users\\michael '
   'liesenberg\\anaconda3\\lib\\site-packages\\pyreadline\\error.py',
   'PYMODULE'),
  ('pyreadline.lineeditor',
   'c:\\users\\michael '
   'liesenberg\\anaconda3\\lib\\site-packages\\pyreadline\\lineeditor\\__init__.py',
   'PYMODULE'),
  ('pyreadline.clipboard',
   'c:\\users\\michael '
   'liesenberg\\anaconda3\\lib\\site-packages\\pyreadline\\clipboard\\__init__.py',
   'PYMODULE'),
  ('pyreadline.clipboard.win32_clipboard',
   'c:\\users\\michael '
   'liesenberg\\anaconda3\\lib\\site-packages\\pyreadline\\clipboard\\win32_clipboard.py',
   'PYMODULE'),
  ('pyreadline.clipboard.no_clipboard',
   'c:\\users\\michael '
   'liesenberg\\anaconda3\\lib\\site-packages\\pyreadline\\clipboard\\no_clipboard.py',
   'PYMODULE'),
  ('pyreadline.clipboard.ironpython_clipboard',
   'c:\\users\\michael '
   'liesenberg\\anaconda3\\lib\\site-packages\\pyreadline\\clipboard\\ironpython_clipboard.py',
   'PYMODULE'),
  ('pyreadline.rlmain',
   'c:\\users\\michael '
   'liesenberg\\anaconda3\\lib\\site-packages\\pyreadline\\rlmain.py',
   'PYMODULE'),
  ('glob',
   'c:\\users\\michael liesenberg\\anaconda3\\lib\\glob.py',
   'PYMODULE'),
  ('code',
   'c:\\users\\michael liesenberg\\anaconda3\\lib\\code.py',
   'PYMODULE'),
  ('codeop',
   'c:\\users\\michael liesenberg\\anaconda3\\lib\\codeop.py',
   'PYMODULE'),
  ('dis', 'c:\\users\\michael liesenberg\\anaconda3\\lib\\dis.py', 'PYMODULE'),
  ('opcode',
   'c:\\users\\michael liesenberg\\anaconda3\\lib\\opcode.py',
   'PYMODULE'),
  ('bdb', 'c:\\users\\michael liesenberg\\anaconda3\\lib\\bdb.py', 'PYMODULE'),
  ('cmd', 'c:\\users\\michael liesenberg\\anaconda3\\lib\\cmd.py', 'PYMODULE'),
  ('inspect',
   'c:\\users\\michael liesenberg\\anaconda3\\lib\\inspect.py',
   'PYMODULE'),
  ('ast', 'c:\\users\\michael liesenberg\\anaconda3\\lib\\ast.py', 'PYMODULE'),
  ('difflib',
   'c:\\users\\michael liesenberg\\anaconda3\\lib\\difflib.py',
   'PYMODULE'),
  ('__future__',
   'c:\\users\\michael liesenberg\\anaconda3\\lib\\__future__.py',
   'PYMODULE'),
  ('_compat_pickle',
   'c:\\users\\michael liesenberg\\anaconda3\\lib\\_compat_pickle.py',
   'PYMODULE'),
  ('struct',
   'c:\\users\\michael liesenberg\\anaconda3\\lib\\struct.py',
   'PYMODULE'),
  ('ntpath',
   'c:\\users\\michael liesenberg\\anaconda3\\lib\\ntpath.py',
   'PYMODULE'),
  ('fnmatch',
   'c:\\users\\michael liesenberg\\anaconda3\\lib\\fnmatch.py',
   'PYMODULE'),
  ('typing',
   'c:\\users\\michael liesenberg\\anaconda3\\lib\\typing.py',
   'PYMODULE'),
  ('stringprep',
   'c:\\users\\michael liesenberg\\anaconda3\\lib\\stringprep.py',
   'PYMODULE'),
  ('_py_abc',
   'c:\\users\\michael liesenberg\\anaconda3\\lib\\_py_abc.py',
   'PYMODULE'),
  ('platform',
   'c:\\users\\michael liesenberg\\anaconda3\\lib\\platform.py',
   'PYMODULE'),
  ('plistlib',
   'c:\\users\\michael liesenberg\\anaconda3\\lib\\plistlib.py',
   'PYMODULE'),
  ('xml.parsers.expat',
   'c:\\users\\michael liesenberg\\anaconda3\\lib\\xml\\parsers\\expat.py',
   'PYMODULE'),
  ('xml.parsers',
   'c:\\users\\michael liesenberg\\anaconda3\\lib\\xml\\parsers\\__init__.py',
   'PYMODULE'),
  ('xml',
   'c:\\users\\michael liesenberg\\anaconda3\\lib\\xml\\__init__.py',
   'PYMODULE'),
  ('xml.sax.expatreader',
   'c:\\users\\michael liesenberg\\anaconda3\\lib\\xml\\sax\\expatreader.py',
   'PYMODULE'),
  ('xml.sax.saxutils',
   'c:\\users\\michael liesenberg\\anaconda3\\lib\\xml\\sax\\saxutils.py',
   'PYMODULE'),
  ('urllib.request',
   'c:\\users\\michael liesenberg\\anaconda3\\lib\\urllib\\request.py',
   'PYMODULE'),
  ('getpass',
   'c:\\users\\michael liesenberg\\anaconda3\\lib\\getpass.py',
   'PYMODULE'),
  ('nturl2path',
   'c:\\users\\michael liesenberg\\anaconda3\\lib\\nturl2path.py',
   'PYMODULE'),
  ('ftplib',
   'c:\\users\\michael liesenberg\\anaconda3\\lib\\ftplib.py',
   'PYMODULE'),
  ('netrc',
   'c:\\users\\michael liesenberg\\anaconda3\\lib\\netrc.py',
   'PYMODULE'),
  ('http.cookiejar',
   'c:\\users\\michael liesenberg\\anaconda3\\lib\\http\\cookiejar.py',
   'PYMODULE'),
  ('urllib.response',
   'c:\\users\\michael liesenberg\\anaconda3\\lib\\urllib\\response.py',
   'PYMODULE'),
  ('urllib.error',
   'c:\\users\\michael liesenberg\\anaconda3\\lib\\urllib\\error.py',
   'PYMODULE'),
  ('xml.sax',
   'c:\\users\\michael liesenberg\\anaconda3\\lib\\xml\\sax\\__init__.py',
   'PYMODULE'),
  ('xml.sax.handler',
   'c:\\users\\michael liesenberg\\anaconda3\\lib\\xml\\sax\\handler.py',
   'PYMODULE'),
  ('xml.sax._exceptions',
   'c:\\users\\michael liesenberg\\anaconda3\\lib\\xml\\sax\\_exceptions.py',
   'PYMODULE'),
  ('xml.sax.xmlreader',
   'c:\\users\\michael liesenberg\\anaconda3\\lib\\xml\\sax\\xmlreader.py',
   'PYMODULE'),
  ('BootLoader',
   'G:\\My '
   'Drive\\_MIKA_WORK\\Spinner\\Software\\llf_spinner\\IRT_App\\Qt\\IRT\\BootLoader.py',
   'PYMODULE'),
  ('Avr109',
   'G:\\My '
   'Drive\\_MIKA_WORK\\Spinner\\Software\\llf_spinner\\IRT_App\\Qt\\IRT\\Avr109.py',
   'PYMODULE'),
  ('IntelHexRecord',
   'G:\\My '
   'Drive\\_MIKA_WORK\\Spinner\\Software\\llf_spinner\\IRT_App\\Qt\\IRT\\IntelHexRecord.py',
   'PYMODULE'),
  ('PySide2',
   'c:\\users\\michael '
   'liesenberg\\anaconda3\\lib\\site-packages\\PySide2\\__init__.py',
   'PYMODULE'),
  ('shiboken2',
   'c:\\users\\michael '
   'liesenberg\\anaconda3\\lib\\site-packages\\shiboken2\\__init__.py',
   'PYMODULE'),
  ('IRT_unit',
   'G:\\My '
   'Drive\\_MIKA_WORK\\Spinner\\Software\\llf_spinner\\IRT_App\\Qt\\IRT\\IRT_unit.py',
   'PYMODULE'),
  ('ctypes',
   'c:\\users\\michael liesenberg\\anaconda3\\lib\\ctypes\\__init__.py',
   'PYMODULE'),
  ('ctypes._endian',
   'c:\\users\\michael liesenberg\\anaconda3\\lib\\ctypes\\_endian.py',
   'PYMODULE'),
  ('qml_rc',
   'G:\\My '
   'Drive\\_MIKA_WORK\\Spinner\\Software\\llf_spinner\\IRT_App\\Qt\\IRT\\qml_rc.py',
   'PYMODULE'),
  ('serial.tools.list_ports',
   'c:\\users\\michael '
   'liesenberg\\anaconda3\\lib\\site-packages\\serial\\tools\\list_ports.py',
   'PYMODULE'),
  ('serial.tools',
   'c:\\users\\michael '
   'liesenberg\\anaconda3\\lib\\site-packages\\serial\\tools\\__init__.py',
   'PYMODULE'),
  ('serial.tools.list_ports_common',
   'c:\\users\\michael '
   'liesenberg\\anaconda3\\lib\\site-packages\\serial\\tools\\list_ports_common.py',
   'PYMODULE'),
  ('serial.tools.list_ports_posix',
   'c:\\users\\michael '
   'liesenberg\\anaconda3\\lib\\site-packages\\serial\\tools\\list_ports_posix.py',
   'PYMODULE'),
  ('serial.tools.list_ports_osx',
   'c:\\users\\michael '
   'liesenberg\\anaconda3\\lib\\site-packages\\serial\\tools\\list_ports_osx.py',
   'PYMODULE'),
  ('serial.tools.list_ports_linux',
   'c:\\users\\michael '
   'liesenberg\\anaconda3\\lib\\site-packages\\serial\\tools\\list_ports_linux.py',
   'PYMODULE'),
  ('serial.tools.list_ports_windows',
   'c:\\users\\michael '
   'liesenberg\\anaconda3\\lib\\site-packages\\serial\\tools\\list_ports_windows.py',
   'PYMODULE'),
  ('serial.win32',
   'c:\\users\\michael '
   'liesenberg\\anaconda3\\lib\\site-packages\\serial\\win32.py',
   'PYMODULE'),
  ('serial',
   'c:\\users\\michael '
   'liesenberg\\anaconda3\\lib\\site-packages\\serial\\__init__.py',
   'PYMODULE'),
  ('serial.serialjava',
   'c:\\users\\michael '
   'liesenberg\\anaconda3\\lib\\site-packages\\serial\\serialjava.py',
   'PYMODULE'),
  ('serial.serialposix',
   'c:\\users\\michael '
   'liesenberg\\anaconda3\\lib\\site-packages\\serial\\serialposix.py',
   'PYMODULE'),
  ('serial.serialwin32',
   'c:\\users\\michael '
   'liesenberg\\anaconda3\\lib\\site-packages\\serial\\serialwin32.py',
   'PYMODULE'),
  ('serial.serialcli',
   'c:\\users\\michael '
   'liesenberg\\anaconda3\\lib\\site-packages\\serial\\serialcli.py',
   'PYMODULE'),
  ('serial.serialutil',
   'c:\\users\\michael '
   'liesenberg\\anaconda3\\lib\\site-packages\\serial\\serialutil.py',
   'PYMODULE'),
  ('PyQt5',
   'c:\\users\\michael '
   'liesenberg\\anaconda3\\lib\\site-packages\\PyQt5\\__init__.py',
   'PYMODULE'),
  ('os', 'c:\\users\\michael liesenberg\\anaconda3\\lib\\os.py', 'PYMODULE')])
